…
[1] "generating figure for  ./plots/GSE136184_cs_prepare_umap_sex"
[1] "generating figure for  ./plots/GSE136184_cs_prepare_umap_sex_highlight"
[1] "generating figure for  ./plots/GSE136184_cs_prepare_umap_visit"
[1] "generating figure for  ./plots/GSE136184_cs_prepare_umap_code"
[1] "generating figure for  ./plots/GSE136184_cs_prepare_umap_cohort"
ERROR : No cells found  for  Longitudinal 
[1] "generating figure for  ./plots/GSE136184_cs_prepare_umap_cohort_highlight"
[1] "generating figure for  ./plots/GSE136184_cs_prepare_umap_age"
[1] "generating figure for  ./plots/GSE136184_cs_prepare_dmap_seurat_clusters"
[1] "generating figure for  ./plots/GSE136184_cs_prepare_dmap_seurat_clusters_highlight"
[1] "generating figure for  ./plots/GSE136184_cs_prepare_dmap_age_group"
[1] "generating figure for  ./plots/GSE136184_cs_prepare_dmap_visit"
[1] "generating figure for  ./plots/GSE136184_cs_prepare_barplot_age_group_2_seurat_clusters"
[1] "generating figure for  ./plots/GSE136184_cs_prepare_barplot_cohort_seurat_clusters"
# A tibble: 6,476 × 7
# Groups:   cluster [18]
   p_val avg_log2FC pct.1 pct.2 p_val_adj cluster gene     
   <dbl>      <dbl> <dbl> <dbl>     <dbl> <fct>   <chr>    
 1     0       5.23 0.839 0.038         0 0       LRRN3    
 2     0       5.74 0.796 0.012         0 0       HBA2     
 3     0       2.90 0.901 0.184         0 0       CCR7     
 4     0       4.52 0.714 0.049         0 0       FCER1G   
 5     0       3.86 0.757 0.109         0 0       PASK     
 6     0       4.48 0.663 0.016         0 0       HBA1     
 7     0       2.46 0.81  0.19          0 0       LEF1     
 8     0       1.91 0.911 0.329         0 0       SELL     
 9     0       1.89 0.882 0.323         0 0       PRKCQ-AS1
10     0       1.28 0.987 0.44          0 0       RPS4Y1   
# ℹ 6,466 more rows
…
