…
[1] "generating figure for  ./plots/GSE136184_l_prepare_umap_age_group"
[1] "generating figure for  ./plots/GSE136184_l_prepare_umap_age_group_2"
ERROR : No cells found  for  Newborn 
ERROR : No cells found  for  Under 30 
[1] "generating figure for  ./plots/GSE136184_l_prepare_umap_age_group_2_highlight"
[1] "generating figure for  ./plots/GSE136184_l_prepare_umap_sex"
[1] "generating figure for  ./plots/GSE136184_l_prepare_umap_sex_highlight"
[1] "generating figure for  ./plots/GSE136184_l_prepare_umap_visit"
[1] "generating figure for  ./plots/GSE136184_l_prepare_umap_code"
[1] "generating figure for  ./plots/GSE136184_l_prepare_umap_cohort"
ERROR : No cells found  for  Cross-sectional 
[1] "generating figure for  ./plots/GSE136184_l_prepare_umap_cohort_highlight"
[1] "generating figure for  ./plots/GSE136184_l_prepare_barplot_age_group_2_seurat_clusters"
[1] "generating figure for  ./plots/GSE136184_l_prepare_barplot_cohort_seurat_clusters"
# A tibble: 7,705 × 7
# Groups:   cluster [12]
   p_val avg_log2FC pct.1 pct.2 p_val_adj cluster gene        
   <dbl>      <dbl> <dbl> <dbl>     <dbl> <fct>   <chr>       
 1     0       1.87 0.875 0.313         0 0       BYSL        
 2     0       1.09 0.915 0.4           0 0       SMG8        
 3     0       1.30 0.744 0.26          0 0       MAML3       
 4     0       1.35 0.818 0.345         0 0       SPINK2      
 5     0       1.26 0.98  0.509         0 0       LINC02245   
 6     0       1.66 0.95  0.486         0 0       TIAM1       
 7     0       1.00 0.898 0.439         0 0       PCSK5       
 8     0       1.38 0.811 0.354         0 0       SLC40A1     
 9     0       1.46 0.685 0.245         0 0       SCRN1       
10     0       1.08 0.971 0.531         0 0       TRAF3IP2-AS1
# ℹ 7,695 more rows
…
