…
CD19_AAAGCAAGTTAGGGTG-1 -0.01389960
CD19_AAAGTAGGTTAGAACA-1 -0.01433525
CD19_AAATGCCGTACAGTTC-1 -0.01355154
CD19_AAATGCCTCGGAAACG-1 -0.01329686
CD19_AACACGTAGTTATCGC-1 -0.03395791
[1] "generating figure for  ./plots/GSE136874_prepare_umap_seurat_clusters"
[1] "generating figure for  ./plots/GSE136874_prepare_umap_seurat_clusters_highlight"
[1] "generating figure for  ./plots/GSE136874_prepare_umap_CAR"
[1] "generating figure for  ./plots/GSE136874_prepare_umap_CAR_highlight"
[1] "generating figure for  ./plots/GSE136874_prepare_dmap_seurat_clusters"
[1] "generating figure for  ./plots/GSE136874_prepare_dmap_seurat_clusters_highlight"
[1] "generating figure for  ./plots/GSE136874_prepare_dmap_CAR"
[1] "generating figure for  ./plots/GSE136874_prepare_dmap_CAR_highlight"
[1] "generating figure for  ./plots/GSE136874_prepare_barplot_CAR_seurat_clusters"
# A tibble: 2,746 × 7
# Groups:   cluster [7]
      p_val avg_log2FC pct.1 pct.2 p_val_adj cluster gene      
      <dbl>      <dbl> <dbl> <dbl>     <dbl> <fct>   <chr>     
 1 6.45e-65       1.54 0.905 0.465  9.40e-61 0       CTSW      
 2 1.37e-55       1.25 0.92  0.522  2.00e-51 0       CD8A      
 3 3.70e-55       1.75 0.885 0.544  5.39e-51 0       AC092580.4
 4 8.47e-53       1.77 0.935 0.726  1.23e-48 0       GZMB      
 5 5.60e-47       1.10 0.917 0.568  8.15e-43 0       CD8B      
 6 1.23e-41       1.56 0.701 0.338  1.80e-37 0       BATF3     
 7 6.09e-38       1.18 0.808 0.518  8.86e-34 0       NKG7      
 8 4.17e-35       2.11 0.515 0.199  6.07e-31 0       XCL1      
 9 2.54e-34       1.66 0.559 0.23   3.70e-30 0       REG4      
10 2.33e-33       2.21 0.444 0.157  3.40e-29 0       XCL2      
# ℹ 2,736 more rows
…
