…
B12.CD8.P5.rep1.b2.PSO -0.016094563
D8.CD8.P5.rep1.b2.PSO  -0.016045004
D11.CD8.P5.rep1.b2.PSO -0.011872349
F11.CD8.P5.rep1.b2.PSO -0.007661201
G10.CD8.P5.rep1.b2.PSO -0.011091648
H6.CD8.P5.rep1.b2.PSO  -0.007974988
H8.CD8.P5.rep1.b2.PSO  -0.011173616
[1] "generating figure for  ./plots/GSE146264_prepare_umap_seurat_clusters"
[1] "generating figure for  ./plots/GSE146264_prepare_umap_orig_ident"
[1] "generating figure for  ./plots/GSE146264_prepare_umap_subject"
[1] "generating figure for  ./plots/GSE146264_prepare_umap_PASI"
[1] "generating figure for  ./plots/GSE146264_prepare_umap_PGA"
[1] "generating figure for  ./plots/GSE146264_prepare_umap_Onset"
[1] "generating figure for  ./plots/GSE146264_prepare_umap_Duration"
# A tibble: 19,966 × 7
# Groups:   cluster [12]
      p_val avg_log2FC pct.1 pct.2 p_val_adj cluster gene  
      <dbl>      <dbl> <dbl> <dbl>     <dbl> <fct>   <chr> 
 1 2.59e-75       2.85 0.509 0.179  8.23e-71 0       MT1E  
 2 4.76e-72       1.53 0.894 0.582  1.51e-67 0       RCBTB2
 3 5.09e-68       1.09 0.99  0.855  1.62e-63 0       LGALS1
 4 2.70e-63       2.43 0.316 0.074  8.59e-59 0       MT1M  
 5 4.82e-60       2.48 0.271 0.056  1.53e-55 0       MT1JP 
 6 3.84e-58       2.25 0.485 0.187  1.22e-53 0       MT1F  
 7 9.81e-54       4.86 0.517 0.228  3.12e-49 0       MT1H  
 8 1.35e-53       1.47 0.57  0.249  4.29e-49 0       CRIP2 
 9 3.64e-52       1.92 0.683 0.395  1.16e-47 0       MT1X  
10 1.09e-49       2.45 0.432 0.171  3.47e-45 0       MT1A  
# ℹ 19,956 more rows
…
