…
D1_2DomLib_AAACGCTTCCACCTGT-1               2
D1_2DomLib_AAAGAACTCAGCCTCT-1               2
D1_2DomLib_AAAGGATCAAGAGGCT-1               4
D1_2DomLib_AAAGGATCAGTCGTTA-1               4
D1_2DomLib_AAAGGGCCAATTCTTC-1               4
[1] "generating figure for  ./plots/GSE214231_prepare_umap_seurat_clusters"
[1] "generating figure for  ./plots/GSE214231_prepare_umap_CAR_Variant"
[1] "generating figure for  ./plots/GSE214231_prepare_umap_CAR_Domain_A"
[1] "generating figure for  ./plots/GSE214231_prepare_umap_CAR_Domain_B"
[1] "generating figure for  ./plots/GSE214231_prepare_umap_CAR_Control"
[1] "generating figure for  ./plots/GSE214231_prepare_umap_CAR_Control_highlight"
[1] "generating figure for  ./plots/GSE214231_prepare_barplot_CAR_Domain_A_seurat_clusters"
[1] "generating figure for  ./plots/GSE214231_prepare_barplot_CAR_Domain_B_seurat_clusters"
[1] "generating figure for  ./plots/GSE214231_prepare_barplot_CAR_Control_seurat_clusters"
# A tibble: 26,085 × 7
# Groups:   cluster [19]
   p_val avg_log2FC pct.1 pct.2 p_val_adj cluster gene      
   <dbl>      <dbl> <dbl> <dbl>     <dbl> <fct>   <chr>     
 1     0       3.29 0.946 0.271         0 0       LINC01871 
 2     0       2.94 0.98  0.31          0 0       PCED1B-AS1
 3     0       2.12 1     0.355         0 0       ATP5F1E   
 4     0       2.22 0.969 0.348         0 0       TLE5      
 5     0       2.04 0.966 0.347         0 0       ATP5ME    
 6     0       2.95 0.815 0.208         0 0       RIPOR2    
 7     0       2.88 0.842 0.275         0 0       RESF1     
 8     0       2.15 0.989 0.438         0 0       RNASEK    
 9     0       2.19 0.968 0.437         0 0       GABARAP   
10     0       1.74 0.997 0.981         0 0       ITM2B     
# ℹ 26,075 more rows
…
