…
AAAGGGCCACCGTGCA-1             4               0   12395   21374 0.006511238
AAAGGTACAGGACTAG-1             8               5   22048   12752 0.006319003
[1] "generating figure for  ./plots/GSE207935_prepare_umap_seurat_clusters"
[1] "generating figure for  ./plots/GSE207935_prepare_umap_seurat_clusters_highlight"
[1] "generating figure for  ./plots/GSE207935_prepare_umap_sample"
[1] "generating figure for  ./plots/GSE207935_prepare_umap_affstat"
[1] "generating figure for  ./plots/GSE207935_prepare_umap_stim"
[1] "generating figure for  ./plots/GSE207935_prepare_umap_affstatstim"
[1] "generating figure for  ./plots/GSE207935_prepare_dmap_seurat_clusters"
[1] "generating figure for  ./plots/GSE207935_prepare_dmap_affstat"
[1] "generating figure for  ./plots/GSE207935_prepare_dmap_stim"
[1] "generating figure for  ./plots/GSE207935_prepare_dmap_affstatstim"
[1] "generating figure for  ./plots/GSE207935_prepare_barplot_affstat_seurat_clusters"
[1] "generating figure for  ./plots/GSE207935_prepare_barplot_stim_seurat_clusters"
# A tibble: 25,115 × 7
# Groups:   cluster [16]
       p_val avg_log2FC pct.1 pct.2 p_val_adj cluster gene    
       <dbl>      <dbl> <dbl> <dbl>     <dbl> <fct>   <chr>   
 1 0               1.47 0.853 0.349 0         0       MAL     
 2 9.76e-186       1.01 0.544 0.275 2.45e-181 0       IL4R    
 3 2.96e-168       1.46 0.306 0.116 7.45e-164 0       RAB30   
 4 1.87e-146       1.79 0.184 0.053 4.71e-142 0       MIR210HG
 5 3.68e- 90       1.02 0.299 0.148 9.25e- 86 0       RNF157  
 6 1.64e- 74       1.20 0.217 0.101 4.13e- 70 0       REG4    
 7 1.75e- 43       1.03 0.12  0.053 4.41e- 39 0       LAYN    
 8 4.79e- 30       1.85 0.036 0.01  1.20e- 25 0       RASL11A 
 9 9.51e- 30       1.14 0.085 0.038 2.39e- 25 0       DARS-AS1
10 5.22e- 26       1.55 0.042 0.014 1.31e- 21 0       PLXNB2  
# ℹ 25,105 more rows
…
