…
C1_Cousin_P1_AAACGCTCACGACGTC-1 0.011267917
C1_Cousin_P1_AAACGCTCATGCGTGC-1 0.012604280
C1_Cousin_P1_AAAGTGAGTGGATTTC-1 0.004791688
C1_Cousin_P1_AACTTCTAGTGGTGAC-1 0.016291037
C1_Cousin_P1_AAGCATCAGTGTAGTA-1 0.005402258
C1_Cousin_P1_AATGCCAGTCTACATG-1 0.006606286
C1_Cousin_P1_ACAACCACAAGTTCCA-1 0.014000985
C1_Cousin_P1_ACCAACAGTAACGCGA-1 0.005214913
C1_Cousin_P1_ACCCTCAAGTCACTGT-1 0.051248706
C1_Cousin_P1_ACGCACGCAATTGTGC-1 0.015238355
[1] "generating figure for  ./plots/GSE196606_prepare_umap_seurat_clusters"
[1] "generating figure for  ./plots/GSE196606_prepare_umap_group"
[1] "generating figure for  ./plots/GSE196606_prepare_umap_cell_type"
[1] "generating figure for  ./plots/GSE196606_prepare_umap_orig_ident"
# A tibble: 10,784 × 7
# Groups:   cluster [21]
       p_val avg_log2FC pct.1 pct.2 p_val_adj cluster gene    
       <dbl>      <dbl> <dbl> <dbl>     <dbl> <fct>   <chr>   
 1 0               1.91 0.979 0.403 0         0       FGFBP2  
 2 0               2.85 0.624 0.113 0         0       HLA-DRB5
 3 0               6.92 0.26  0.004 0         0       MYOM2   
 4 0               1.48 0.998 0.825 0         0       S100A4  
 5 0               1.44 1     0.988 0         0       ACTB    
 6 9.53e-301       1.17 0.999 0.951 1.57e-296 0       SH3BGRL3
 7 4.20e-295       1.20 1     0.942 6.92e-291 0       PFN1    
 8 2.38e-274       2.52 0.577 0.13  3.93e-270 0       HLA-DQA1
 9 1.51e-270       1.22 0.994 0.923 2.48e-266 0       S100A6  
10 4.70e-265       1.40 0.985 0.485 7.74e-261 0       GZMH    
# ℹ 10,774 more rows
…
