…
pt01_AAAGCAACACCTATCC-1               0
pt01_AAAGCAAGTGAAAGAG-1               1
pt01_AAATGCCGTAGGGTAC-1               1
[1] "generating figure for  ./plots/GSE151511_prepare_umap_seurat_clusters"
[1] "generating figure for  ./plots/GSE151511_prepare_umap_seurat_clusters_highlight"
[1] "generating figure for  ./plots/GSE151511_prepare_umap_patient"
[1] "generating figure for  ./plots/GSE151511_prepare_umap_clinicalresponse"
[1] "generating figure for  ./plots/GSE151511_prepare_umap_responder"
[1] "generating figure for  ./plots/GSE151511_prepare_umap_EMR"
[1] "generating figure for  ./plots/GSE151511_prepare_barplot_patient_seurat_clusters"
[1] "generating figure for  ./plots/GSE151511_prepare_barplot_clinical_response_seurat_clusters"
[1] "generating figure for  ./plots/GSE151511_prepare_barplot_EMR_seurat_clusters"
[1] "generating figure for  ./plots/GSE151511_prepare_barplot_CRS_seurat_clusters"
[1] "generating figure for  ./plots/GSE151511_prepare_barplot_ICANS_seurat_clusters"
# A tibble: 9,498 × 7
# Groups:   cluster [23]
   p_val avg_log2FC pct.1 pct.2 p_val_adj cluster gene    
   <dbl>      <dbl> <dbl> <dbl>     <dbl> <fct>   <chr>   
 1     0       3.65 0.667 0.112         0 0       EGLN3   
 2     0       2.95 0.61  0.172         0 0       TNFRSF4 
 3     0       2.46 0.629 0.198         0 0       TNFRSF18
 4     0       1.98 0.746 0.338         0 0       IL9R    
 5     0       3.28 0.431 0.074         0 0       FXYD7   
 6     0       2.22 0.927 0.572         0 0       GATA3   
 7     0       1.47 0.873 0.53          0 0       CAPG    
 8     0       4.06 0.354 0.03          0 0       PTGDR2  
 9     0       1.47 0.919 0.605         0 0       TIMP1   
10     0       1.36 0.766 0.455         0 0       IL10RA  
# ℹ 9,488 more rows
…
