…
donor150_day0_AAACCTGGTACGACCC-1               4    1173    2061 0.009411967
donor150_day0_AAACCTGGTTTAGCTG-1               4     213    2682 0.016379697
donor150_day0_AAACGGGAGACTGTAA-1               4     139    2784 0.023498457
donor150_day0_AAACGGGAGGGTGTGT-1               4    3244    6642 0.003292687
donor150_day0_AAACGGGCAAATTGCC-1               4     626    5595 0.008938956
donor150_day0_AAACGGGTCACCGGGT-1               4    1500    2256 0.007611915
donor150_day0_AAAGATGAGAGTTGGC-1               4    1180    9665 0.005606576
donor150_day0_AAAGATGCATCGGAAG-1               4    1628    1141 0.012627840
[1] "generating figure for  ./plots/GSE160160_prepare_umap_seurat_clusters"
[1] "generating figure for  ./plots/GSE160160_prepare_umap_seurat_clusters_highlight"
[1] "generating figure for  ./plots/GSE160160_prepare_umap_donor"
[1] "generating figure for  ./plots/GSE160160_prepare_umap_exposure"
[1] "generating figure for  ./plots/GSE160160_prepare_barplot_donor_seurat_clusters"
[1] "generating figure for  ./plots/GSE160160_prepare_barplot_exposure_seurat_clusters"
# A tibble: 17,260 × 7
# Groups:   cluster [19]
   p_val avg_log2FC pct.1 pct.2 p_val_adj cluster gene     
   <dbl>      <dbl> <dbl> <dbl>     <dbl> <fct>   <chr>    
 1     0       4.00 0.987 0.182         0 0       HIST1H3G 
 2     0       3.05 0.966 0.165         0 0       HIST1H3B 
 3     0       3.72 0.921 0.134         0 0       HIST1H3F 
 4     0       3.04 0.935 0.159         0 0       HIST1H2AL
 5     0       3.26 0.915 0.141         0 0       HIST1H2BH
 6     0       2.91 0.98  0.212         0 0       HIST1H2AJ
 7     0       3.13 0.968 0.201         0 0       SPC25    
 8     0       3.05 0.966 0.205         0 0       ESCO2    
 9     0       3.27 0.993 0.252         0 0       HIST1H2AH
10     0       1.84 0.959 0.223         0 0       UBE2C    
# ℹ 17,250 more rows
…
