…
[1] "generating figure for  ./plots/GSE120575_prepare_umap_response"
[1] "generating figure for  ./plots/GSE120575_prepare_umap_response_highlight"
[1] "generating figure for  ./plots/GSE120575_prepare_umap_therapy"
[1] "generating figure for  ./plots/GSE120575_prepare_umap_therapy_highlight"
[1] "generating figure for  ./plots/GSE120575_prepare_umap_timepoint"
[1] "generating figure for  ./plots/GSE120575_prepare_umap_timepoint_highlight"
[1] "generating figure for  ./plots/GSE120575_prepare_umap_timepoint_response"
[1] "generating figure for  ./plots/GSE120575_prepare_umap_timepoint_response_highlight"
[1] "generating figure for  ./plots/GSE120575_prepare_dmap_seurat_clusters"
[1] "generating figure for  ./plots/GSE120575_prepare_dmap_seurat_clusters_highlight"
[1] "generating figure for  ./plots/GSE120575_prepare_dmap_timepoint"
[1] "generating figure for  ./plots/GSE120575_prepare_barplot_response_seurat_clusters"
[1] "generating figure for  ./plots/GSE120575_prepare_barplot_therapy_seurat_clusters"
[1] "generating figure for  ./plots/GSE120575_prepare_barplot_timepoint_seurat_clusters"
# A tibble: 577 × 7
# Groups:   cluster [11]
      p_val avg_log2FC pct.1 pct.2 p_val_adj cluster gene     
      <dbl>      <dbl> <dbl> <dbl>     <dbl> <fct>   <chr>    
 1 1.33e-80       2.27 0.326 0.077  6.63e-77 0       PLAC8    
 2 2.53e-70       2.07 0.336 0.095  1.26e-66 0       S1PR1    
 3 4.46e-63       1.75 0.401 0.143  2.23e-59 0       SORL1    
 4 3.79e-49       1.24 0.49  0.236  1.90e-45 0       IL7R     
 5 3.19e-47       2.14 0.235 0.066  1.59e-43 0       DHRS3    
 6 3.28e-44       1.36 0.418 0.194  1.64e-40 0       MGAT4A   
 7 1.88e-40       1.17 0.462 0.236  9.41e-37 0       TCF7     
 8 5.79e-40       1.16 0.49  0.276  2.89e-36 0       FAM65B   
 9 2.41e-32       1.18 0.419 0.231  1.21e-28 0       A2M      
10 8.97e-30       1.16 0.39  0.221  4.48e-26 0       LINC00861
# ℹ 567 more rows
…
