…
[1] "generating figure for  ./plots/GSE125881_prepare_dmap_seurat_clusters_highlight"
[1] "generating figure for  ./plots/GSE125881_prepare_dmap_patient"
[1] "generating figure for  ./plots/GSE125881_prepare_dmap_patient_highlight"
[1] "generating figure for  ./plots/GSE125881_prepare_dmap_timepoint"
[1] "generating figure for  ./plots/GSE125881_prepare_dmap_timepoint_highlight"
[1] "generating figure for  ./plots/GSE125881_prepare_dmap_group"
[1] "generating figure for  ./plots/GSE125881_prepare_dmap_group_highlight"
[1] "generating figure for  ./plots/GSE125881_prepare_dmap_group2"
[1] "generating figure for  ./plots/GSE125881_prepare_dmap_disease"
[1] "generating figure for  ./plots/GSE125881_prepare_dmap_disease_highlight"
[1] "generating figure for  ./plots/GSE125881_prepare_barplot_group_seurat_clusters"
[1] "generating figure for  ./plots/GSE125881_prepare_barplot_timepoint_seurat_clusters"
[1] "generating figure for  ./plots/GSE125881_prepare_barplot_patient_seurat_clusters"
[1] "generating figure for  ./plots/GSE125881_prepare_barplot_disease_seurat_clusters"
# A tibble: 13,556 × 7
# Groups:   cluster [18]
   p_val avg_log2FC pct.1 pct.2 p_val_adj cluster gene  
   <dbl>      <dbl> <dbl> <dbl>     <dbl> <fct>   <chr> 
 1     0       2.71 0.73  0.245         0 0       MX1   
 2     0       2.04 0.761 0.341         0 0       XAF1  
 3     0       2.06 0.893 0.492         0 0       CMC1  
 4     0       1.56 0.938 0.546         0 0       GZMK  
 5     0       1.63 0.682 0.297         0 0       NR4A2 
 6     0       2.29 0.842 0.457         0 0       IFI6  
 7     0       1.75 0.712 0.336         0 0       TRIM22
 8     0       3.19 0.404 0.05          0 0       PLS3  
 9     0       2.07 0.556 0.217         0 0       IRF7  
10     0       2.13 0.833 0.498         0 0       ISG15 
# ℹ 13,546 more rows
…
