…
TACACATTTACTTGAA_Cell11             0               0
CACACCTTTGCAGATA_Cell14             2               0
CAGACGAATATGCCTC_Cell16             0               2
CTTTCAGCCTTTGGAA_Cell17             0               0
[1] "generating figure for  ./plots/mdandersonTCM_prepare_umap_seurat_clusters"
[1] "generating figure for  ./plots/mdandersonTCM_prepare_umap_seurat_clusters_highlight"
[1] "generating figure for  ./plots/mdandersonTCM_prepare_umap_cancertype"
[1] "generating figure for  ./plots/mdandersonTCM_prepare_umap_cancertype_highlight"
[1] "generating figure for  ./plots/mdandersonTCM_prepare_umap_tissuetype"
[1] "generating figure for  ./plots/mdandersonTCM_prepare_umap_tissuetype_highlight"
[1] "generating figure for  ./plots/mdandersonTCM_prepare_barplot_cancertype_tissuetype"
[1] "generating figure for  ./plots/mdandersonTCM_prepare_barplot_tissuetype_cancertype"
[1] "generating figure for  ./plots/mdandersonTCM_prepare_barplot_cancertype_seurat_clusters"
[1] "generating figure for  ./plots/mdandersonTCM_prepare_barplot_tissuetype_seurat_clusters"
# A tibble: 37,021 × 7
# Groups:   cluster [17]
       p_val avg_log2FC pct.1 pct.2 p_val_adj cluster gene  
       <dbl>      <dbl> <dbl> <dbl>     <dbl> <fct>   <chr> 
 1 0               3.31 0.178 0.038 0         0       CXCL8 
 2 0               1.27 0.618 0.481 0         0       RPS17 
 3 0               4.17 0.11  0.008 0         0       CXCL1 
 4 0               3.40 0.09  0.012 0         0       CXCL3 
 5 0               1.11 0.917 0.868 0         0       RPS20 
 6 0               1.21 0.956 0.93  0         0       RPL27A
 7 0               1.19 0.982 0.971 0         0       RPL13A
 8 0               1.05 0.93  0.927 0         0       RPL31 
 9 2.24e-255       2.53 0.079 0.015 1.58e-250 0       SFTPC 
10 1.45e-236       1.04 0.268 0.127 1.03e-231 0       IGKC  
# ℹ 37,011 more rows
…
