…
N1-AAATGCCAGCTGATAA             3               0   19608   17180 -0.001435348
N1-AACTCCCAGGTGGGTT             3               0   20732   18862 -0.001468982
N1-AACTCTTCATCCTTGC            18               3   13345   14528 -0.003039342
N1-AAGACCTCACAGCGTC             2               3   14681   15578 -0.002930234
[1] "generating figure for  ./plots/Zenodo3993994_prepare_umap_seurat_clusters"
[1] "generating figure for  ./plots/Zenodo3993994_prepare_umap_seurat_clusters_highlight"
[1] "generating figure for  ./plots/Zenodo3993994_prepare_umap_disease"
[1] "generating figure for  ./plots/Zenodo3993994_prepare_umap_disease_highlight"
[1] "generating figure for  ./plots/Zenodo3993994_prepare_umap_sample_source"
[1] "generating figure for  ./plots/Zenodo3993994_prepare_umap_sample_type"
[1] "generating figure for  ./plots/Zenodo3993994_prepare_dmap_seurat_clusters"
[1] "generating figure for  ./plots/Zenodo3993994_prepare_dmap_disease"
[1] "generating figure for  ./plots/Zenodo3993994_prepare_barplot_disease_seurat_clusters"
[1] "generating figure for  ./plots/Zenodo3993994_prepare_barplot_sample_source_seurat_clusters"
# A tibble: 11,187 × 7
# Groups:   cluster [22]
   p_val avg_log2FC pct.1 pct.2 p_val_adj cluster gene  
   <dbl>      <dbl> <dbl> <dbl>     <dbl> <fct>   <chr> 
 1     0       2.24 0.962 0.288         0 0       FGFBP2
 2     0       1.80 0.92  0.302         0 0       GZMB  
 3     0       1.83 0.998 0.429         0 0       GZMH  
 4     0       2.22 0.741 0.215         0 0       FCGR3A
 5     0       1.76 0.787 0.278         0 0       CX3CR1
 6     0       1.82 0.749 0.243         0 0       ADGRG1
 7     0       1.65 0.83  0.33          0 0       GNLY  
 8     0       1.22 0.846 0.392         0 0       KLRD1 
 9     0       1.94 0.615 0.17          0 0       PRSS23
10     0       1.55 0.711 0.278         0 0       S1PR5 
# ℹ 11,177 more rows
…
