…
N1-AAGACCTCACAGCGTC             2               3   10310   18472 0.003112082
[1] "generating figure for  ./plots/Zenodo3993994_blood_prepare_umap_seurat_clusters"
[1] "generating figure for  ./plots/Zenodo3993994_blood_prepare_umap_seurat_clusters_highlight"
[1] "generating figure for  ./plots/Zenodo3993994_blood_prepare_umap_disease"
ERROR : No cells found  for  Alzheimer (C) 
ERROR : No cells found  for  MCI (C) 
ERROR : No cells found  for  Control (C) 
[1] "generating figure for  ./plots/Zenodo3993994_blood_prepare_umap_disease_highlight"
[1] "generating figure for  ./plots/Zenodo3993994_blood_prepare_umap_sample_source"
[1] "generating figure for  ./plots/Zenodo3993994_blood_prepare_umap_sample_type"
[1] "generating figure for  ./plots/Zenodo3993994_blood_prepare_dmap_seurat_clusters"
[1] "generating figure for  ./plots/Zenodo3993994_blood_prepare_dmap_disease"
[1] "generating figure for  ./plots/Zenodo3993994_blood_prepare_barplot_disease_seurat_clusters"
[1] "generating figure for  ./plots/Zenodo3993994_blood_prepare_barplot_sample_source_seurat_clusters"
# A tibble: 8,636 × 7
# Groups:   cluster [19]
   p_val avg_log2FC pct.1 pct.2 p_val_adj cluster gene  
   <dbl>      <dbl> <dbl> <dbl>     <dbl> <fct>   <chr> 
 1     0       2.12 0.961 0.306         0 0       FGFBP2
 2     0       1.70 0.918 0.319         0 0       GZMB  
 3     0       1.75 0.998 0.438         0 0       GZMH  
 4     0       2.14 0.74  0.229         0 0       FCGR3A
 5     0       1.73 0.751 0.257         0 0       ADGRG1
 6     0       1.65 0.788 0.295         0 0       CX3CR1
 7     0       1.58 0.827 0.347         0 0       GNLY  
 8     0       1.16 0.849 0.407         0 0       KLRD1 
 9     0       1.83 0.61  0.181         0 0       PRSS23
10     0       1.47 0.713 0.295         0 0       S1PR5 
# ℹ 8,626 more rows
…
