…
AD1-AACTCAGGTTTGGGCC    1604 -0.03431705
AD1-AACTTTCGTCACAAGG    1179 -0.01138011
[1] "generating figure for  ./plots/Zenodo3993994_csf_prepare_umap_seurat_clusters"
[1] "generating figure for  ./plots/Zenodo3993994_csf_prepare_umap_seurat_clusters_highlight"
[1] "generating figure for  ./plots/Zenodo3993994_csf_prepare_umap_disease"
ERROR : No cells found  for  Parkinson (B) 
ERROR : No cells found  for  Control (B) 
[1] "generating figure for  ./plots/Zenodo3993994_csf_prepare_umap_disease_highlight"
[1] "generating figure for  ./plots/Zenodo3993994_csf_prepare_umap_sample_source"
[1] "generating figure for  ./plots/Zenodo3993994_csf_prepare_umap_sample_type"
[1] "generating figure for  ./plots/Zenodo3993994_csf_prepare_dmap_seurat_clusters"
[1] "generating figure for  ./plots/Zenodo3993994_csf_prepare_dmap_disease"
[1] "generating figure for  ./plots/Zenodo3993994_csf_prepare_barplot_disease_seurat_clusters"
[1] "generating figure for  ./plots/Zenodo3993994_csf_prepare_barplot_sample_source_seurat_clusters"
# A tibble: 2,067 × 7
# Groups:   cluster [8]
      p_val avg_log2FC pct.1 pct.2 p_val_adj cluster gene   
      <dbl>      <dbl> <dbl> <dbl>     <dbl> <fct>   <chr>  
 1 4.08e-94       1.97 0.945 0.447  6.44e-90 0       LTB    
 2 1.77e-68       3.84 0.313 0.023  2.79e-64 0       MAL    
 3 8.47e-59       2.41 0.488 0.11   1.34e-54 0       CISH   
 4 4.60e-38       1.39 0.709 0.348  7.25e-34 0       NOSIP  
 5 2.50e-35       1.77 0.442 0.134  3.94e-31 0       LEF1   
 6 2.51e-32       1.45 0.546 0.208  3.96e-28 0       TMEM123
 7 5.56e-29       1.02 0.663 0.303  8.78e-25 0       SELL   
 8 4.02e-27       1.56 0.387 0.126  6.34e-23 0       CCR7   
 9 6.01e-27       1.41 0.491 0.198  9.49e-23 0       PIM1   
10 2.59e-25       1.05 0.669 0.348  4.09e-21 0       FLT3LG 
# ℹ 2,057 more rows
…
