…
[1] "generating figure for  ./plots/GSE153931_prepare_umap_patient"
[1] "generating figure for  ./plots/GSE153931_prepare_umap_orig_virus"
[1] "generating figure for  ./plots/GSE153931_prepare_umap_orig_virus2"
[1] "generating figure for  ./plots/GSE153931_prepare_umap_orig_severity"
[1] "generating figure for  ./plots/GSE153931_prepare_umap_orig_severity_score"
[1] "generating figure for  ./plots/GSE153931_prepare_umap_orig_severity_x"
[1] "generating figure for  ./plots/GSE153931_prepare_umap_orig_peptide"
[1] "generating figure for  ./plots/GSE153931_prepare_umap_orig_hospital"
[1] "generating figure for  ./plots/GSE153931_prepare_umap_orig_unit"
[1] "generating figure for  ./plots/GSE153931_prepare_umap_orig_diabetes"
[1] "generating figure for  ./plots/GSE153931_prepare_umap_orig_asthma"
[1] "generating figure for  ./plots/GSE153931_prepare_umap_cardiovascular"
[1] "generating figure for  ./plots/GSE153931_prepare_umap_tumour"
[1] "generating figure for  ./plots/GSE153931_prepare_umap_severity_mod"
# A tibble: 5,143 × 7
# Groups:   cluster [17]
   p_val avg_log2FC pct.1 pct.2 p_val_adj cluster gene    
   <dbl>      <dbl> <dbl> <dbl>     <dbl> <fct>   <chr>   
 1     0       1.00 0.972 0.626         0 0       IL2RA   
 2     0       1.14 0.669 0.336         0 0       NOP16   
 3     0       1.01 0.733 0.402         0 0       DCTPP1  
 4     0       1.16 0.616 0.29          0 0       PAICS   
 5     0       1.35 0.557 0.234         0 0       MYC     
 6     0       1.14 0.64  0.318         0 0       MRTO4   
 7     0       1.39 0.523 0.218         0 0       NME1    
 8     0       1.15 0.959 0.679         0 0       MIR155HG
 9     0       1.29 0.485 0.215         0 0       RRS1    
10     0       1.09 0.54  0.27          0 0       EXOSC5  
# ℹ 5,133 more rows
…
